aes.vcd
$date
	Fri Mar 14 13:34:55 2025
$end
$version
	Icarus Verilog
$end
$timescale
	1ps
$end
$scope module tb_aes $end
$var wire 1 ! valid_out $end
$var wire 128 " text_out [127:0] $end
$var wire 1 # ready_in $end
$var reg 1 $ clk $end
$var reg 128 % key_in [127:0] $end
$var reg 1 & ready_out $end
$var reg 1 ' rst_n $end
$var reg 128 ( text_in [127:0] $end
$var reg 128 ) text_out_expected [127:0] $end
$var reg 1 * valid_in $end
$var integer 32 + test_case [31:0] $end
$scope module dut $end
$var wire 128 , ciphertext_out [127:0] $end
$var wire 1 $ clk $end
$var wire 128 - key_in [127:0] $end
$var wire 128 . plaintext_in [127:0] $end
$var wire 1 # ready_in $end
$var wire 1 & ready_out $end
$var wire 1 ' rst_n $end
$var wire 1 * valid_in $end
$var wire 1 ! valid_out $end
$var wire 128 / text_sub_bytes [127:0] $end
$var wire 128 0 text_shift_rows [127:0] $end
$var wire 128 1 text_mix_columns [127:0] $end
$var wire 128 2 text_add_round_key [127:0] $end
$var wire 128 3 roundkey_cur [127:0] $end
$var reg 128 4 ciphertext_out_reg [127:0] $end
$var reg 1 5 processing $end
$var reg 1 6 ready_in_reg $end
$var reg 4 7 round [3:0] $end
$var reg 128 8 roundkey_prev [127:0] $end
$var reg 128 9 text_prev [127:0] $end
$var reg 1 : valid_out_reg $end
$scope module addRk $end
$var wire 128 ; text_in [127:0] $end
$var wire 128 < roundkey_in [127:0] $end
$var reg 128 = text_out [127:0] $end
$upscope $end
$scope module mixC $end
$var wire 4 > round [3:0] $end
$var wire 128 ? text_in [127:0] $end
$var reg 128 @ text_out [127:0] $end
$var integer 32 A c [31:0] $end
$scope function mb2 $end
$var reg 8 B x [7:0] $end
$upscope $end
$scope function mb3 $end
$var reg 8 C x [7:0] $end
$upscope $end
$upscope $end
$scope module rK $end
$var wire 128 D key_in [127:0] $end
$var wire 4 E round [3:0] $end
$var reg 32 F col_add [31:0] $end
$var reg 32 G col_rot [31:0] $end
$var reg 32 H col_sbox [31:0] $end
$var reg 128 I key_out [127:0] $end
$var reg 32 J tmp1 [31:0] $end
$var reg 32 K tmp2 [31:0] $end
$var reg 32 L tmp3 [31:0] $end
$var integer 32 M i [31:0] $end
$scope task LOOKUP_BYTE $end
$var reg 8 N text_in [7:0] $end
$var reg 8 O text_out [7:0] $end
$upscope $end
$scope task RCON_32 $end
$var reg 32 P key_in [31:0] $end
$var reg 32 Q key_out [31:0] $end
$var reg 4 R round [3:0] $end
$upscope $end
$upscope $end
$scope module shiftR $end
$var wire 4 S round [3:0] $end
$var wire 128 T text_in [127:0] $end
$var reg 128 U text_out [127:0] $end
$upscope $end
$scope module subB $end
$var wire 4 V round [3:0] $end
$var wire 128 W text_in [127:0] $end
$var reg 128 X text_out [127:0] $end
$var integer 32 Y c [31:0] $end
$var integer 32 Z i [31:0] $end
$var integer 32 [ r [31:0] $end
$scope task LOOKUP_BYTE $end
$var reg 8 \ text_in [7:0] $end
$var reg 8 ] text_out [7:0] $end
$upscope $end
$upscope $end
$upscope $end
$upscope $end
$enddefinitions $end
$comment Show the parameter values. $end
$dumpall
$end
#0
$dumpvars
bx ]
bx \
bx [
bx Z
bx Y
bx X
bx W
bx V
bx U
bx T
bx S
bx R
bx Q
bx P
bx O
bx N
bx M
bx L
bx K
bx J
bx I
bx H
bx G
bx F
bx E
bx D
bx C
bx B
bx A
bx @
bx ?
bx >
bx =
bx <
bx ;
x:
bx 9
bx 8
bx 7
x6
x5
bx 4
bx 3
bx 2
bx 1
bx 0
bx /
bx .
bx -
bx ,
bx +
0*
bx )
bx (
0'
1&
bx %
0$
x#
bx "
x!
$end
#4000
b0 7
b0 >
b0 E
b0 S
b0 V
0#
06
1$
#8000
0$
#10000
1'
#12000
0!
0:
05
1$
#16000
0$
#20000
1#
16
1$
#24000
0$
#28000
1$
#30000
1*
b10100100111000010001100000111011101010001000101010111011111011111111100101110001010000010101000110010101110000001011100101110101 )
b11110000111100110100101000101011010100110100001000101101010000010101111101001011110111001001010100101110000101011110101011011010 %
b11110000111100110100101000101011010100110100001000101101010000010101111101001011110111001001010100101110000101011110101011011010 -
b11010101000011111001000111101100101100110111101111110111100110101000000001001011101101101011110000111111101111111000110001100011 (
b11010101000011111001000111101100101100110111101111110111100110101000000001001011101101101011110000111111101111111000110001100011 .
b0 +
#32000
0$
#36000
b100101111111001101101111000111111000000011100111011010110110111101111100000000011010100010100100010001101010100110011010111001 2
b100101111111001101101111000111111000000011100111011010110110111101111100000000011010100010100100010001101010100110011010111001 =
b11010101000011111001000111101100101100110111101111110111100110101000000001001011101101101011110000111111101111111000110001100011 1
b11010101000011111001000111101100101100110111101111110111100110101000000001001011101101101011110000111111101111111000110001100011 ;
b11010101000011111001000111101100101100110111101111110111100110101000000001001011101101101011110000111111101111111000110001100011 @
b11010101000011111001000111101100101100110111101111110111100110101000000001001011101101101011110000111111101111111000110001100011 0
b11010101000011111001000111101100101100110111101111110111100110101000000001001011101101101011110000111111101111111000110001100011 ?
b11010101000011111001000111101100101100110111101111110111100110101000000001001011101101101011110000111111101111111000110001100011 U
0*
b11010101000011111001000111101100101100110111101111110111100110101000000001001011101101101011110000111111101111111000110001100011 /
b11010101000011111001000111101100101100110111101111110111100110101000000001001011101101101011110000111111101111111000110001100011 T
b11010101000011111001000111101100101100110111101111110111100110101000000001001011101101101011110000111111101111111000110001100011 X
b11110000111100110100101000101011010100110100001000101101010000010101111101001011110111001001010100101110000101011110101011011010 3
b11110000111100110100101000101011010100110100001000101101010000010101111101001011110111001001010100101110000101011110101011011010 <
b11110000111100110100101000101011010100110100001000101101010000010101111101001011110111001001010100101110000101011110101011011010 I
15
0#
06
b11010101000011111001000111101100101100110111101111110111100110101000000001001011101101101011110000111111101111111000110001100011 9
b11010101000011111001000111101100101100110111101111110111100110101000000001001011101101101011110000111111101111111000110001100011 W
b11110000111100110100101000101011010100110100001000101101010000010101111101001011110111001001010100101110000101011110101011011010 8
b11110000111100110100101000101011010100110100001000101101010000010101111101001011110111001001010100101110000101011110101011011010 D
1$
#40000
0$
#44000
b10110100001111111100111011100111011100101000001010000101101001000110110011001001011001110000101110101100110011010110111000111111 2
b10110100001111111100111011100111011100101000001010000101101001000110110011001001011001110000101110101100110011010110111000111111 =
b11100010010111101001111111101100010011011010010110101111111111100100010110100100010111100010100100110101001010110100000101011 1
b11100010010111101001111111101100010011011010010110101111111111100100010110100100010111100010100100110101001010110100000101011 ;
b11100010010111101001111111101100010011011010010110101111111111100100010110100100010111100010100100110101001010110100000101011 @
b10010 B
b10010 C
b10000000 A
b10100100011111011110110011001110 L
b11111011001101100011000001011011 K
b10101000011101000001110100011010111110110011011000110000010110111010010001111101111011001100111010001010011010000000011000010100 3
b10101000011101000001110100011010111110110011011000110000010110111010010001111101111011001100111010001010011010000000011000010100 <
b10101000011101000001110100011010111110110011011000110000010110111010010001111101111011001100111010001010011010000000011000010100 I
b10101000011101000001110100011010 J
b1011000100001110101011100110001 F
b1011000100001110101011100110001 Q
b1 R
b1011001100001110101011100110001 P
b1011001100001110101011100110001 H
b1011001 O
b10101 N
b100000 M
b10101111010101101101000101110 G
b111111000100100000001001010110111000010110001100110011110001101001111010101100101110011011100110000010101100000101011110100101 0
b111111000100100000001001010110111000010110001100110011110001101001111010101100101110011011100110000010101100000101011110100101 ?
b111111000100100000001001010110111000010110001100110011110001101001111010101100101110011011100110000010101100000101011110100101 U
b111111101100001011100111000110111000010001001001010111101110011001111001100011000000101010010110000010101011000011001101010110 /
b111111101100001011100111000110111000010001001001010111101110011001111001100011000000101010010110000010101011000011001101010110 T
b111111101100001011100111000110111000010001001001010111101110011001111001100011000000101010010110000010101011000011001101010110 X
b111111 ]
b100101 \
b1111000 Z
b100000 Y
b100 [
b100101111111001101101111000111111000000011100111011010110110111101111100000000011010100010100100010001101010100110011010111001 9
b100101111111001101101111000111111000000011100111011010110110111101111100000000011010100010100100010001101010100110011010111001 W
b1 7
b1 >
b1 E
b1 S
b1 V
1$
#48000
0$
#52000
b101011010100011111011110010100111000111110001011001000100011100000111010101110000000001010010100100000110010101001000111111001 2
b101011010100011111011110010100111000111110001011001000100011100000111010101110000000001010010100100000110010101001000111111001 =
b11000100010010100001000011110000111101111100111100011111101100011011111011111110001110110101010000011010111100101010110000011100 1
b11000100010010100001000011110000111101111100111100011111101100011011111011111110001110110101010000011010111100101010110000011100 ;
b11000100010010100001000011110000111101111100111100011111101100011011111011111110001110110101010000011010111100101010110000011100 @
b10011 B
b10011 C
b10000000 A
b10001101000100111000010101110101010000001101110110011111100101000101000010111101100010110100100110010001011101011001011100101011 0
b10001101000100111000010101110101010000001101110110011111100101000101000010111101100010110100100110010001011101011001011100101011 ?
b10001101000100111000010101110101010000001101110110011111100101000101000010111101100010110100100110010001011101011001011100101011 U
b10001101011101011000101110010100010000000001001110010111010010010101000011011101100001010010101110010001101111011001111101110101 /
b10001101011101011000101110010100010000000001001110010111010010010101000011011101100001010010101110010001101111011001111101110101 T
b10001101011101011000101110010100010000000001001110010111010010010101000011011101100001010010101110010001101111011001111101110101 X
b10001101 ]
b10110100 \
b1111000 Z
b100000 Y
b100 [
b10110000010100000011101111110001 L
b10100001011011101011100111111 K
b11101111000110111110011101100100000101000010110111010111001111111011000001010000001110111111000100111010001110000011110111100101 3
b11101111000110111110011101100100000101000010110111010111001111111011000001010000001110111111000100111010001110000011110111100101 <
b11101111000110111110011101100100000101000010110111010111001111111011000001010000001110111111000100111010001110000011110111100101 I
b11101111000110111110011101100100 J
b1000111011011111111101001111110 F
b1000111011011111111101001111110 Q
b10 R
b1000101011011111111101001111110 P
b1000101011011111111101001111110 H
b1000101 O
b1101000 N
b100000 M
b1101000000001100001010010001010 G
b10110100001111111100111011100111011100101000001010000101101001000110110011001001011001110000101110101100110011010110111000111111 9
b10110100001111111100111011100111011100101000001010000101101001000110110011001001011001110000101110101100110011010110111000111111 W
b10 7
b10 >
b10 E
b10 S
b10 V
b10101000011101000001110100011010111110110011011000110000010110111010010001111101111011001100111010001010011010000000011000010100 8
b10101000011101000001110100011010111110110011011000110000010110111010010001111101111011001100111010001010011010000000011000010100 D
1$
#56000
0$
#60000
b1011100110110100010000100111110010011100110100101100011110010011110100010100011111101101110001010000001010100100100100000111000 2
b1011100110110100010000100111110010011100110100101100011110010011110100010100011111101101110001010000001010100100100100000111000 =
b10110000111001100001111111011010101101100111100010001010000100101010000011100010001001001100100011110011001010111010011111110111 1
b10110000111001100001111111011010101101100111100010001010000100101010000011100010001001001100100011110011001010111010011111110111 ;
b10110000111001100001111111011010101101100111100010001010000100101010000011100010001001001100100011110011001010111010011111110111 @
b10011000 B
b10011000 C
b10000000 A
b11110001100110000110001110011001000100011110010010000001001000101010101101110100011010000001100110110111110100011110100000000110 0
b11110001100110000110001110011001000100011110010010000001001000101010101101110100011010000001100110110111110100011110100000000110 ?
b11110001100110000110001110011001000100011110010010000001001000101010101101110100011010000001100110110111110100011110100000000110 U
b11110001110100010110100000100010000100011001100011101000000110011010101111100100011000110000011010110111011101001000000110011001 /
b11110001110100010110100000100010000100011001100011101000000110011010101111100100011000110000011010110111011101001000000110011001 T
b11110001110100010110100000100010000100011001100011101000000110011010101111100100011000110000011010110111011101001000000110011001 X
b11110001 ]
b101011 \
b1111000 Z
b100000 Y
b100 [
b1001000010000011101001000101010 L
b11111000000100011110100111011011 K
b11101100001111000011111011100100111110000001000111101001110110110100100001000001110100100010101001110010011110011110111111001111 3
b11101100001111000011111011100100111110000001000111101001110110110100100001000001110100100010101001110010011110011110111111001111 <
b11101100001111000011111011100100111110000001000111101001110110110100100001000001110100100010101001110010011110011110111111001111 I
b11101100001111000011111011100100 J
b11001001111101100110000000 F
b11001001111101100110000000 Q
b11 R
b111001001111101100110000000 P
b111001001111101100110000000 H
b111 O
b111000 N
b100000 M
b111000001111011110010100111010 G
b101011010100011111011110010100111000111110001011001000100011100000111010101110000000001010010100100000110010101001000111111001 9
b101011010100011111011110010100111000111110001011001000100011100000111010101110000000001010010100100000110010101001000111111001 W
b11 7
b11 >
b11 E
b11 S
b11 V
b11101111000110111110011101100100000101000010110111010111001111111011000001010000001110111111000100111010001110000011110111100101 8
b11101111000110111110011101100100000101000010110111010111001111111011000001010000001110111111000100111010001110000011110111100101 D
1$
#64000
0$
#68000
b10010011100000011000101011001111000010101000110100010001001010011110111111101001100010011011111100010010111001100110010100001001 2
b10010011100000011000101011001111000010101000110100010001001010011110111111101001100010011011111100010010111001100110010100001001 =
b11000001011000100011111001101011101000000111111101001100010101100000110101011010000001101110101010000010001011000000010110010011 1
b11000001011000100011111001101011101000000111111101001100010101100000110101011010000001101110101010000010001011000000010110010011 ;
b11000001011000100011111001101011101000000111111101001100010101100000110101011010000001101110101010000010001011000000010110010011 @
b11111001 B
b11111001 C
b10000000 A
b1001010111110010100001000000111001011110000101001010010101100101001101100000000111111011101110100001100010101111111101110011000 0
b1001010111110010100001000000111001011110000101001010010101100101001101100000000111111011101110100001100010101111111101110011000 ?
b1001010111110010100001000000111001011110000101001010010101100101001101100000000111111011101110100001100010101111111101110011000 U
b1001010010101111111110110110010001011111111100111111011110111011001101100001010010000101001100000001100000000000101001000000111 /
b1001010010101111111110110110010001011111111100111111011110111011001101100001010010000101001100000001100000000000101001000000111 T
b1001010010101111111110110110010001011111111100111111011110111011001101100001010010000101001100000001100000000000101001000000111 X
b1001010 ]
b1011100 \
b1111000 Z
b100000 Y
b100 [
b11100010101100111000111101010101 L
b10101010111100100101110101111111 K
b1010010111000111011010010100100101010101111001001011101011111111110001010110011100011110101010110010000110010100110000010011010 3
b1010010111000111011010010100100101010101111001001011101011111111110001010110011100011110101010110010000110010100110000010011010 <
b1010010111000111011010010100100101010101111001001011101011111111110001010110011100011110101010110010000110010100110000010011010 I
b1010010111000111011010010100100 J
b10111110110111111000101001000000 F
b10111110110111111000101001000000 Q
b100 R
b10110110110111111000101001000000 P
b10110110110111111000101001000000 H
b10110110 O
b1111001 N
b100000 M
b1111001111011111100111101110010 G
b1011100110110100010000100111110010011100110100101100011110010011110100010100011111101101110001010000001010100100100100000111000 9
b1011100110110100010000100111110010011100110100101100011110010011110100010100011111101101110001010000001010100100100100000111000 W
b100 7
b100 >
b100 E
b100 S
b100 V
b11101100001111000011111011100100111110000001000111101001110110110100100001000001110100100010101001110010011110011110111111001111 8
b11101100001111000011111011100100111110000001000111101001110110110100100001000001110100100010101001110010011110011110111111001111 D
1$
#72000
0$
#76000
b11010100101001101101101101000011101101111100011100110111010011101000100110001101100001110011010111111001111111000111110010101010 2
b11010100101001101101101101000011101101111100011100110111010011101000100110001101100001110011010111111001111111000111110010101010 =
b11100010100101011101011110000111001010110000011001100110111101011111011111111111010110011101101100010111010001001100001011011110 1
b11100010100101011101011110000111001010110000011001100110111101011111011111111111010110011101101100010111010001001100001011011110 ;
b11100010100101011101011110000111001010110000011001100110111101011111011111111111010110011101101100010111010001001100001011011110 @
b1011101 B
b1011101 C
b10000000 A
b11011100010111011010011100000001011001110001111001001101100010101101111110001110011111101010010111001001000011001000001000001000 0
b11011100010111011010011100000001011001110001111001001101100010101101111110001110011111101010010111001001000011001000001000001000 ?
b11011100010111011010011100000001011001110001111001001101100010101101111110001110011111101010010111001001000011001000001000001000 U
b11011100000011000111111010001010011001110101110110000010101001011101111100011110101001110000100011001001100011100100110100000001 /
b11011100000011000111111010001010011001110101110110000010101001011101111100011110101001110000100011001001100011100100110100000001 T
b11011100000011000111111010001010011001110101110110000010101001011101111100011110101001110000100011001001100011100100110100000001 X
b11011100 ]
b10010011 \
b1111000 Z
b100000 Y
b100 [
b1111110011100101101111011101110 L
b10011100110000010101000110111011 K
b110110001100110000110011000100100111001100000101010001101110110111111001110010110111101110111011101110101110001011111001110100 3
b110110001100110000110011000100100111001100000101010001101110110111111001110010110111101110111011101110101110001011111001110100 <
b110110001100110000110011000100100111001100000101010001101110110111111001110010110111101110111011101110101110001011111001110100 I
b110110001100110000110011000100 J
b1100100110100001011100001100000 F
b1100100110100001011100001100000 Q
b101 R
b1110100110100001011100001100000 P
b1110100110100001011100001100000 H
b1110100 O
b11001010 N
b100000 M
b11001010011000001001101010010000 G
b10010011100000011000101011001111000010101000110100010001001010011110111111101001100010011011111100010010111001100110010100001001 9
b10010011100000011000101011001111000010101000110100010001001010011110111111101001100010011011111100010010111001100110010100001001 W
b101 7
b101 >
b101 E
b101 S
b101 V
b1010010111000111011010010100100101010101111001001011101011111111110001010110011100011110101010110010000110010100110000010011010 8
b1010010111000111011010010100100101010101111001001011101011111111110001010110011100011110101010110010000110010100110000010011010 D
1$
#80000
0$
#84000
b110101111101000110100110010000100110010100110101110011101001000000001101000111100001110000111111011001001001110011110100 2
b110101111101000110100110010000100110010100110101110011101001000000001101000111100001110000111111011001001001110011110100 =
b1111010010010100100111101001010101001000011100111111010100110010000100000100011000011111010010101001001111100100011001100111001 1
b1111010010010100100111101001010101001000011100111111010100110010000100000100011000011111010010101001001111100100011001100111001 ;
b1111010010010100100111101001010101001000011100111111010100110010000100000100011000011111010010101001001111100100011001100111001 @
b11000110 B
b11000110 C
b10000000 A
b1001000110001100001011110101100101010010101110100010000000110101010011110110000101110010010111110011001001001001001101010010110 0
b1001000110001100001011110101100101010010101110100010000000110101010011110110000101110010010111110011001001001001001101010010110 ?
b1001000110001100001011110101100101010010101110100010000000110101010011110110000101110010010111110011001001001001001101010010110 U
b1001000001001001011100100011010101010011100011010011010001011111010011101011101000101111001011010011001101100000001000010101100 /
b1001000001001001011100100011010101010011100011010011010001011111010011101011101000101111001011010011001101100000001000010101100 T
b1001000001001001011100100011010101010011100011010011010001011111010011101011101000101111001011010011001101100000001000010101100 X
b1001000 ]
b11010100 \
b1111000 Z
b100000 Y
b100 [
b10011000001011100001000110111001 L
b11100110010111001100111101010111 K
b1111010100111011001111011101100111001100101110011001111010101111001100000101110000100011011100101110110100101101010111111001101 3
b1111010100111011001111011101100111001100101110011001111010101111001100000101110000100011011100101110110100101101010111111001101 <
b1111010100111011001111011101100111001100101110011001111010101111001100000101110000100011011100101110110100101101010111111001101 I
b1111010100111011001111011101100 J
b1001100101011101001001000101000 F
b1001100101011101001001000101000 Q
b110 R
b1101100101011101001001000101000 P
b1101100101011101001001000101000 H
b1101100 O
b10111000 N
b100000 M
b10111000101111100111010011101110 G
b11010100101001101101101101000011101101111100011100110111010011101000100110001101100001110011010111111001111111000111110010101010 9
b11010100101001101101101101000011101101111100011100110111010011101000100110001101100001110011010111111001111111000111110010101010 W
b110 7
b110 >
b110 E
b110 S
b110 V
b110110001100110000110011000100100111001100000101010001101110110111111001110010110111101110111011101110101110001011111001110100 8
b110110001100110000110011000100100111001100000101010001101110110111111001110010110111101110111011101110101110001011111001110100 D
1$
#88000
0$
#92000
b1110110001101000011001100101011100011000111110011011100101101100110010010111001001001001110101001010000010101001010000111010011 2
b1110110001101000011001100101011100011000111110011011100101101100110010010111001001001001110101001010000010101001010000111010011 =
b11011100110100000001000011111111110000001100010000110000001101011011000000101111110110011101000011110010010101001111001100100100 1
b11011100110100000001000011111111110000001100010000110000001101011011000000101111110110011101000011110010010101001111001100100100 ;
b11011100110100000001000011111111110000001100010000110000001101011011000000101111110110011101000011110010010101001111001100100100 @
b1001101 B
b1001101 C
b10000000 A
b1100011010011010111001010111111001011001101011111011110001001000110000001000011001111101000101101110101000011101001011010011100 0
b1100011010011010111001010111111001011001101011111011110001001000110000001000011001111101000101101110101000011101001011010011100 ?
b1100011010011010111001010111111001011001101011111011110001001000110000001000011001111101000101101110101000011101001011010011100 U
b1100011000011100011111000100100001011000100110110010110100010110110000011010111011100101001110001110101010000111101111010111111 /
b1100011000011100011111000100100001011000100110110010110100010110110000011010111011100101001110001110101010000111101111010111111 T
b1100011000011100011111000100100001011000100110110010110100010110110000011010111011100101001110001110101010000111101111010111111 X
b1100011 ]
b0 \
b1111000 Z
b100000 Y
b100 [
b11010100100101101111110100111010 L
b1001100101110001110110010000011 K
b10101010111001000010001111010100010011001011100011101100100000111101010010010110111111010011101010100010000000000101001011110111 3
b10101010111001000010001111010100010011001011100011101100100000111101010010010110111111010011101010100010000000000101001011110111 <
b10101010111001000010001111010100010011001011100011101100100000111101010010010110111111010011101010100010000000000101001011110111 I
b10101010111001000010001111010100 J
b11010000011110011011110100111000 F
b11010000011110011011110100111000 Q
b111 R
b10010000011110011011110100111000 P
b10010000011110011011110100111000 H
b10010000 O
b10010110 N
b100000 M
b10010110101011111100110101110110 G
b110101111101000110100110010000100110010100110101110011101001000000001101000111100001110000111111011001001001110011110100 9
b110101111101000110100110010000100110010100110101110011101001000000001101000111100001110000111111011001001001110011110100 W
b111 7
b111 >
b111 E
b111 S
b111 V
b1111010100111011001111011101100111001100101110011001111010101111001100000101110000100011011100101110110100101101010111111001101 8
b1111010100111011001111011101100111001100101110011001111010101111001100000101110000100011011100101110110100101101010111111001101 D
1$
#96000
0$
#100000
b1011001110000001010010101001100111101000011001111111001010111001011101011011001011101101110110111111100101111111100011011011110 2
b1011001110000001010010101001100111101000011001111111001010111001011101011011001011101101110110111111100101111111100011011011110 =
b10000001001001110111010100010111100010110111101011110001100010110101100010011001011001011101010001111011101011100111001111110 1
b10000001001001110111010100010111100010110111101011110001100010110101100010011001011001011101010001111011101011100111001111110 ;
b10000001001001110111010100010111100010110111101011110001100010110101100010011001011001011101010001111011101011100111001111110 @
b10000 B
b10000 C
b10000000 A
b111000000100000011011001100110011001000101011000110010111100010100001100100000110000110100111001010011000110001000011010000111 0
b111000000100000011011001100110011001000101011000110010111100010100001100100000110000110100111001010011000110001000011010000111 ?
b111000000100000011011001100110011001000101011000110010111100010100001100100000110000110100111001010011000110001000011010000111 U
b111000000110001100001111110001011001000001000010000110010011100100001101010110001101101000011101010011001000000011001001100110 /
b111000000110001100001111110001011001000001000010000110010011100100001101010110001101101000011101010011001000000011001001100110 T
b111000000110001100001111110001011001000001000010000110010011100100001101010110001101101000011101010011001000000011001001100110 X
b111000 ]
b1110110 \
b1111000 Z
b100000 Y
b100 [
b11010001110010100101101001010111 L
b101010111001010011101101101 K
b1001001111001000100101111101110000001010101110010100111011011011101000111001010010110100101011101110011110010100000100010100000 3
b1001001111001000100101111101110000001010101110010100111011011011101000111001010010110100101011101110011110010100000100010100000 <
b1001001111001000100101111101110000001010101110010100111011011011101000111001010010110100101011101110011110010100000100010100000 I
b1001001111001000100101111101110 J
b11100011000000000110100000111010 F
b11100011000000000110100000111010 Q
b1000 R
b1100011000000000110100000111010 P
b1100011000000000110100000111010 H
b1100011 O
b0 N
b100000 M
b10100101111011110100010 G
b1110110001101000011001100101011100011000111110011011100101101100110010010111001001001001110101001010000010101001010000111010011 9
b1110110001101000011001100101011100011000111110011011100101101100110010010111001001001001110101001010000010101001010000111010011 W
b1000 7
b1000 >
b1000 E
b1000 S
b1000 V
b10101010111001000010001111010100010011001011100011101100100000111101010010010110111111010011101010100010000000000101001011110111 8
b10101010111001000010001111010100010011001011100011101100100000111101010010010110111111010011101010100010000000000101001011110111 D
1$
#104000
0$
#108000
b11010000110101111111010011100110100001001011001110001110000001010101010111100110011110001100011011100011101100101000001010111001 2
b11010000110101111111010011100110100001001011001110001110000001010101010111100110011110001100011011100011101100101000001010111001 =
b11110110000000110101111110000111101001110011101110000010000010011010011110100100001011101001110101100010001110101101110001000010 1
b11110110000000110101111110000111101001110011101110000010000010011010011110100100001011101001110101100010001110101101110001000010 ;
b11110110000000110101111110000111101001110011101110000010000010011010011110100100001011101001110101100010001110101101110001000010 @
b11000011 B
b11000011 C
b10000000 A
b11001011110000110011100000011101101111110011010110110100001010011111010000001000000001100100101010110000101110101001100101010101 0
b11001011110000110011100000011101101111110011010110110100001010011111010000001000000001100100101010110000101110101001100101010101 ?
b11001011110000110011100000011101101111110011010110110100001010011111010000001000000001100100101010110000101110101001100101010101 U
b11001011101110100000011000101001101111111100001110011001010010101111010000110101001110000101010110110000000010001011010000011101 /
b11001011101110100000011000101001101111111100001110011001010010101111010000110101001110000101010110110000000010001011010000011101 T
b11001011101110100000011000101001101111111100001110011001010010101111010000110101001110000101010110110000000010001011010000011101 X
b11001011 ]
b1011001 \
b1111000 Z
b100000 Y
b100 [
b11110010010000100101011001011011 L
b100011100010000000110000001100 K
b100110110101001010101101100001001000111000100000001100000011001111001001000010010101100101101110000001100010000101111011111011 3
b100110110101001010101101100001001000111000100000001100000011001111001001000010010101100101101110000001100010000101111011111011 <
b100110110101001010101101100001001000111000100000001100000011001111001001000010010101100101101110000001100010000101111011111011 I
b100110110101001010101101100001 J
b1101111001100001110000010001111 F
b1101111001100001110000010001111 Q
b1001 R
b1110100001100001110000010001111 P
b1110100001100001110000010001111 H
b1110100 O
b11001010 N
b100000 M
b11001010000010001010000001110011 G
b1011001110000001010010101001100111101000011001111111001010111001011101011011001011101101110110111111100101111111100011011011110 9
b1011001110000001010010101001100111101000011001111111001010111001011101011011001011101101110110111111100101111111100011011011110 W
b1001 7
b1001 >
b1001 E
b1001 S
b1001 V
b1001001111001000100101111101110000001010101110010100111011011011101000111001010010110100101011101110011110010100000100010100000 8
b1001001111001000100101111101110000001010101110010100111011011011101000111001010010110100101011101110011110010100000100010100000 D
1$
#112000
0$
#116000
b10100100111000010001100000111011101010001000101010111011111011111111100101110001010000010101000110010101110000001011100101110101 2
b10100100111000010001100000111011101010001000101010111011111011111111100101110001010000010101000110010101110000001011100101110101 =
b1110000011011011011110001010110010111111000111000010011100011101111110000110111101111110110101100010001000011100001100110110100 1
b1110000011011011011110001010110010111111000111000010011100011101111110000110111101111110110101100010001000011100001100110110100 ;
b1110000011011011011110001010110010111111000111000010011100011101111110000110111101111110110101100010001000011100001100110110100 @
b1110000011011011011110001010110010111111000111000010011100011101111110000110111101111110110101100010001000011100001100110110100 0
b1110000011011011011110001010110010111111000111000010011100011101111110000110111101111110110101100010001000011100001100110110100 ?
b1110000011011011011110001010110010111111000111000010011100011101111110000110111101111110110101100010001000011100001100110110100 U
b1110000000011101011111110001110010111110110110100011001011010111111110010001110101111001011010000010001001101110001001101010110 /
b1110000000011101011111110001110010111110110110100011001011010111111110010001110101111001011010000010001001101110001001101010110 T
b1110000000011101011111110001110010111110110110100011001011010111111110010001110101111001011010000010001001101110001001101010110 X
b1110000 ]
b11010000 \
b1111000 Z
b100000 Y
b100 [
b101010001101111111000111010 L
b11110111000001001010100001100001 K
b11010100100011001010010001101101111101110000010010101000011000010000010101000110111111100011101010000100110011101010000011000001 3
b11010100100011001010010001101101111101110000010010101000011000010000010101000110111111100011101010000100110011101010000011000001 <
b11010100100011001010010001101101111101110000010010101000011000010000010101000110111111100011101010000100110011101010000011000001 I
b11010100100011001010010001101101 J
b11110010010110000000111100001100 F
b11110010010110000000111100001100 Q
b1010 R
b11000100010110000000111100001100 P
b11000100010110000000111100001100 H
b11000100 O
b10001000 N
b100000 M
b10001000010111101111101110000001 G
b11010000110101111111010011100110100001001011001110001110000001010101010111100110011110001100011011100011101100101000001010111001 9
b11010000110101111111010011100110100001001011001110001110000001010101010111100110011110001100011011100011101100101000001010111001 W
b1010 7
b1010 >
b1010 E
b1010 S
b1010 V
b100110110101001010101101100001001000111000100000001100000011001111001001000010010101100101101110000001100010000101111011111011 8
b100110110101001010101101100001001000111000100000001100000011001111001001000010010101100101101110000001100010000101111011111011 D
1$
#120000
0$
#124000
b1110000011011011011110001010110010111111000111000010011100011101111110000110111101111110110101100010001000011100001100110110100 2
b1110000011011011011110001010110010111111000111000010011100011101111110000110111101111110110101100010001000011100001100110110100 =
b10100100111000010001100000111011101010001000101010111011111011111111100101110001010000010101000110010101110000001011100101110101 1
b10100100111000010001100000111011101010001000101010111011111011111111100101110001010000010101000110010101110000001011100101110101 ;
b10100100111000010001100000111011101010001000101010111011111011111111100101110001010000010101000110010101110000001011100101110101 @
b10100100111000010001100000111011101010001000101010111011111011111111100101110001010000010101000110010101110000001011100101110101 0
b10100100111000010001100000111011101010001000101010111011111011111111100101110001010000010101000110010101110000001011100101110101 ?
b10100100111000010001100000111011101010001000101010111011111011111111100101110001010000010101000110010101110000001011100101110101 U
b10100100111000010001100000111011101010001000101010111011111011111111100101110001010000010101000110010101110000001011100101110101 /
b10100100111000010001100000111011101010001000101010111011111011111111100101110001010000010101000110010101110000001011100101110101 T
b10100100111000010001100000111011101010001000101010111011111011111111100101110001010000010101000110010101110000001011100101110101 X
05
b10100100111000010001100000111011101010001000101010111011111011111111100101110001010000010101000110010101110000001011100101110101 "
b10100100111000010001100000111011101010001000101010111011111011111111100101110001010000010101000110010101110000001011100101110101 ,
b10100100111000010001100000111011101010001000101010111011111011111111100101110001010000010101000110010101110000001011100101110101 4
1!
1:
b10100100111000010001100000111011101010001000101010111011111011111111100101110001010000010101000110010101110000001011100101110101 9
b10100100111000010001100000111011101010001000101010111011111011111111100101110001010000010101000110010101110000001011100101110101 W
b1011 7
b1011 >
b1011 E
b1011 S
b1011 V
b11010100100011001010010001101101111101110000010010101000011000010000010101000110111111100011101010000100110011101010000011000001 8
b11010100100011001010010001101101111101110000010010101000011000010000010101000110111111100011101010000100110011101010000011000001 D
1$
#128000
0$
#132000
0'
0!
0:
1#
16
1$
#136000
0$
#140000
0#
06
b0 7
b0 >
b0 E
b0 S
b0 V
1$
#142000
1'
#144000
0$
#148000
1#
16
1$
#152000
0$
#156000
1$
#160000
0$
